dplyr package in R explained 
 
The first step of working with data in dplyr is to load the data into what the package
authors call a 'data frame tbl' or 'tbl_df'. Use the following code to create a new tbl_df called cran:
 
cran <- tbl_df(mydf)
 
 From ?tbl_df, "The main advantage to using a tbl_df over a regular data frame is the
printing." Let's see what is meant by this. Type cran to print our tbl_df to the console.
 
> cran
# A tibble: 225,468 x 11
       X       date     time    size r_version r_arch      r_os      package version country
   <int>      <chr>    <chr>   <int>     <chr>  <chr>     <chr>        <chr>   <chr>   <chr>
 1     1 2014-07-08 00:54:41   80589     3.1.0 x86_64   mingw32    htmltools   0.2.4      US
 2     2 2014-07-08 00:59:53  321767     3.1.0 x86_64   mingw32      tseries 0.10-32      US
 3     3 2014-07-08 00:47:13  748063     3.1.0 x86_64 linux-gnu        party  1.0-15      US
 4     4 2014-07-08 00:48:05  606104     3.1.0 x86_64 linux-gnu        Hmisc  3.14-4      US
 5     5 2014-07-08 00:46:50   79825     3.0.2 x86_64 linux-gnu       digest   0.6.4      CA
 6     6 2014-07-08 00:48:04   77681     3.1.0 x86_64 linux-gnu randomForest   4.6-7      US
 7     7 2014-07-08 00:48:35  393754     3.1.0 x86_64 linux-gnu         plyr   1.8.1      US
 8     8 2014-07-08 00:47:30   28216     3.0.2 x86_64 linux-gnu      whisker   0.3-2      US
 9     9 2014-07-08 00:54:58    5928      <NA>   <NA>      <NA>         Rcpp  0.10.4      CN
10    10 2014-07-08 00:15:35 2206029     3.0.2 x86_64 linux-gnu     hflights     0.1      US
# ... with 225,458 more rows, and 1 more variables: ip_id <int>
…
 
 
 
 
 
select()
 As may often be the case, particularly with larger datasets, we are only interested in
some of the variables. Use select(cran, ip_id, package, country) to select only the ip_id,
package, and country variables from the cran dataset.
 
> select(cran, ip_id, package, country)
# A tibble: 225,468 x 3
   ip_id      package country
   <int>        <chr>   <chr>
 1     1    htmltools      US
 2     2      tseries      US
 3     3        party      US
 4     3        Hmisc      US
 5     4       digest      CA
 6     3 randomForest      US
 7     3         plyr      US
 8     5      whisker      US
 9     6         Rcpp      CN
10     7     hflights      US
# ... with 225,458 more rows
…
 Also, note that the columns are returned to us in the order we specified, even though
ip_id is the rightmost column in the original dataset.
 
Recall that in R, the `:` operator provides a compact notation for creating a sequence of
numbers. For example, try 5:20
 
Normally, this notation is reserved for numbers, but select() allows you to specify a
sequence of columns this way, which can save a bunch of typing. Use select(cran,
r_arch:country) to select all columns starting from r_arch and ending with country.
 
> select(cran, r_arch:country)
# A tibble: 225,468 x 5
   r_arch      r_os      package version country
    <chr>     <chr>        <chr>   <chr>   <chr>
 1 x86_64   mingw32    htmltools   0.2.4      US
 2 x86_64   mingw32      tseries 0.10-32      US
 3 x86_64 linux-gnu        party  1.0-15      US
 4 x86_64 linux-gnu        Hmisc  3.14-4      US
 5 x86_64 linux-gnu       digest   0.6.4      CA
 6 x86_64 linux-gnu randomForest   4.6-7      US
 7 x86_64 linux-gnu         plyr   1.8.1      US
 8 x86_64 linux-gnu      whisker   0.3-2      US
 9   <NA>      <NA>         Rcpp  0.10.4      CN
10 x86_64 linux-gnu     hflights     0.1      US
# ... with 225,458 more rows
 
Instead of specifying the columns we want to keep, we can also specify the columns we want
to throw away. To see how this works, do select(cran, -time) to omit the time column.
 
 
> select(cran, -time)
# A tibble: 225,468 x 10
       X       date    size r_version r_arch      r_os      package version country ip_id
   <int>      <chr>   <int>     <chr>  <chr>     <chr>        <chr>   <chr>   <chr> <int>
 1     1 2014-07-08   80589     3.1.0 x86_64   mingw32    htmltools   0.2.4      US     1
 2     2 2014-07-08  321767     3.1.0 x86_64   mingw32      tseries 0.10-32      US     2
 3     3 2014-07-08  748063     3.1.0 x86_64 linux-gnu        party  1.0-15      US     3
 4     4 2014-07-08  606104     3.1.0 x86_64 linux-gnu        Hmisc  3.14-4      US     3
 5     5 2014-07-08   79825     3.0.2 x86_64 linux-gnu       digest   0.6.4      CA     4
 6     6 2014-07-08   77681     3.1.0 x86_64 linux-gnu randomForest   4.6-7      US     3
 7     7 2014-07-08  393754     3.1.0 x86_64 linux-gnu         plyr   1.8.1      US     3
 8     8 2014-07-08   28216     3.0.2 x86_64 linux-gnu      whisker   0.3-2      US     5
 9     9 2014-07-08    5928      <NA>   <NA>      <NA>         Rcpp  0.10.4      CN     6
10    10 2014-07-08 2206029     3.0.2 x86_64 linux-gnu     hflights     0.1      US     7
# ... with 225,458 more rows
…
> -5:20
 [1] -5 -4 -3 -2 -1  0  1  2  3  4  5  6  7  8  9 10 11 12 13 14 15 16 17 18 19 20
 
| Oops! That gaves us a vector of numbers from -5 through 20, which is not what we want.
| Instead, we want to negate the entire sequence of numbers from 5 through 20, so that we
| get -5, -6, -7, ... , -18, -19, -20. Try the same thing, except surround 5:20 with
| parentheses so that R knows we want it to first come up with the sequence of numbers, then
| apply the negative sign to the whole thing.
 
> -(5:20)
 [1]  -5  -6  -7  -8  -9 -10 -11 -12 -13 -14 -15 -16 -17 -18 -19 -20
 
select(cran,-(X:size))
# A tibble: 225,468 x 7
   r_version r_arch      r_os      package version country ip_id
       <chr>  <chr>     <chr>        <chr>   <chr>   <chr> <int>
 1     3.1.0 x86_64   mingw32    htmltools   0.2.4      US     1
 2     3.1.0 x86_64   mingw32      tseries 0.10-32      US     2
 3     3.1.0 x86_64 linux-gnu        party  1.0-15      US     3
 4     3.1.0 x86_64 linux-gnu        Hmisc  3.14-4      US     3
 5     3.0.2 x86_64 linux-gnu       digest   0.6.4      CA     4
 6     3.1.0 x86_64 linux-gnu randomForest   4.6-7      US     3
 7     3.1.0 x86_64 linux-gnu         plyr   1.8.1      US     3
 8     3.0.2 x86_64 linux-gnu      whisker   0.3-2      US     5
 9      <NA>   <NA>      <NA>         Rcpp  0.10.4      CN     6
10     3.0.2 x86_64 linux-gnu     hflights     0.1      US     7
# ... with 225,458 more rows
 
filter()
 
| Now that you know how to select a subset of columns using select(), a natural next
| question is "How do I select a subset of rows?" That's where the filter() function comes
| in.
 
 
| Use filter(cran, package == "swirl") to select all rows for which the package variable is
| equal to "swirl". Be sure to use two equals signs side-by-side!
 
> filter(cran, package == "swirl")
# A tibble: 820 x 11
       X       date     time   size r_version r_arch         r_os package version country
   <int>      <chr>    <chr>  <int>     <chr>  <chr>        <chr>   <chr>   <chr>   <chr>
 1    27 2014-07-08 00:17:16 105350     3.0.2 x86_64      mingw32   swirl   2.2.9      US
 2   156 2014-07-08 00:22:53  41261     3.1.0 x86_64    linux-gnu   swirl   2.2.9      US
 3   358 2014-07-08 00:13:42 105335    2.15.2 x86_64      mingw32   swirl   2.2.9      CA
 4   593 2014-07-08 00:59:45 105465     3.1.0 x86_64 darwin13.1.0   swirl   2.2.9      MX
 5   831 2014-07-08 00:55:27 105335     3.0.3 x86_64      mingw32   swirl   2.2.9      US
 6   997 2014-07-08 00:33:06  41261     3.1.0 x86_64      mingw32   swirl   2.2.9      US
 7  1023 2014-07-08 00:35:36 106393     3.1.0 x86_64      mingw32   swirl   2.2.9      BR
 8  1144 2014-07-08 00:00:39 106534     3.0.2 x86_64    linux-gnu   swirl   2.2.9      US
 9  1402 2014-07-08 00:41:41  41261     3.1.0   i386      mingw32   swirl   2.2.9      US
10  1424 2014-07-08 00:44:49 106393     3.1.0 x86_64    linux-gnu   swirl   2.2.9      US
# ... with 810 more rows, and 1 more variables: ip_id <int>
 
| Again, note that filter() recognizes 'package' as a column of cran, without you having to
| explicitly specify cran$package.
 
| The == operator asks whether the thing on the left is equal to the thing on the right. If
| yes, then it returns TRUE. If no, then FALSE. In this case, package is an entire vector
| (column) of values, so package == "swirl" returns a vector of TRUEs and FALSEs. filter()
| then returns only the rows of cran corresponding to the TRUEs.
 
| You can specify as many conditions as you want, separated by commas. For example
| filter(cran, r_version == "3.1.1", country == "US") will return all rows of cran
| corresponding to downloads from users in the US running R version 3.1.1. Try it out.
 
> filter(cran, r_version == "3.1.1", country == "US")
# A tibble: 1,588 x 11
       X       date     time    size r_version r_arch         r_os      package version
   <int>      <chr>    <chr>   <int>     <chr>  <chr>        <chr>        <chr>   <chr>
 1  2216 2014-07-08 00:48:58  385112     3.1.1 x86_64 darwin13.1.0   colorspace   1.2-4
 2 17332 2014-07-08 03:39:57  197459     3.1.1 x86_64 darwin13.1.0         httr     0.3
 3 17465 2014-07-08 03:25:38   23259     3.1.1 x86_64 darwin13.1.0         snow  0.3-13
 4 18844 2014-07-08 03:59:17  190594     3.1.1 x86_64 darwin13.1.0       maxLik   1.2-0
 5 30182 2014-07-08 04:13:15   77683     3.1.1   i386      mingw32 randomForest   4.6-7
 6 30193 2014-07-08 04:06:26 2351969     3.1.1   i386      mingw32      ggplot2   1.0.0
 7 30195 2014-07-08 04:07:09  299080     3.1.1   i386      mingw32    fExtremes 3010.81
 8 30217 2014-07-08 04:32:04  568036     3.1.1   i386      mingw32        rJava   0.9-6
 9 30245 2014-07-08 04:10:41  526858     3.1.1   i386      mingw32         LPCM  0.44-8
10 30354 2014-07-08 04:32:51 1763717     3.1.1   i386      mingw32         mgcv   1.8-1
# ... with 1,578 more rows, and 2 more variables: country <chr>, ip_id <int>
 
 filter(cran, r_version <= "3.0.2", country == "IN") will return all rows for which
| r_version is less than or equal to "3.0.2" and country is equal to "IN".
 
> filter(cran, r_version <= "3.0.2", country == "IN")
# A tibble: 4,139 x 11
       X       date     time     size r_version r_arch      r_os       package   version
   <int>      <chr>    <chr>    <int>     <chr>  <chr>     <chr>         <chr>     <chr>
 1   348 2014-07-08 00:44:04 10218907     3.0.0 x86_64   mingw32            BH  1.54.0-2
 2  9990 2014-07-08 02:11:32   397497     3.0.2 x86_64 linux-gnu     equateIRT       1.1
 3  9991 2014-07-08 02:11:32   119199     3.0.2 x86_64 linux-gnu      ggdendro    0.1-14
 4  9992 2014-07-08 02:11:33    81779     3.0.2 x86_64 linux-gnu         dfcrm     0.2-2
 5 10022 2014-07-08 02:19:45  1557078    2.15.0 x86_64   mingw32 RcppArmadillo 0.4.320.0
 6 10023 2014-07-08 02:19:46  1184285    2.15.1   i686 linux-gnu      forecast       5.4
 7 10189 2014-07-08 02:38:06   908854     3.0.2 x86_64 linux-gnu     editrules     2.7.2
 8 10199 2014-07-08 02:38:28   178436     3.0.2 x86_64 linux-gnu        energy     1.6.1
 9 10200 2014-07-08 02:38:29    51811     3.0.2 x86_64 linux-gnu        ENmisc     1.2-7
10 10201 2014-07-08 02:38:29    65245     3.0.2 x86_64 linux-gnu       entropy     1.2.0
# ... with 4,129 more rows, and 2 more variables: country <chr>, ip_id <int>
 
Our last two calls to filter() requested all rows for which some condition AND another
| condition were TRUE. We can also request rows for which EITHER one condition OR another
| condition are TRUE. For example, filter(cran, country == "US" | country == "IN") will
| gives us all rows for which the country variable equals either "US" or "IN". Give it a go.
 
> filter(cran, country == "US" | country == "IN")
# A tibble: 95,283 x 11
       X       date     time    size r_version r_arch      r_os      package version country
   <int>      <chr>    <chr>   <int>     <chr>  <chr>     <chr>        <chr>   <chr>   <chr>
 1     1 2014-07-08 00:54:41   80589     3.1.0 x86_64   mingw32    htmltools   0.2.4      US
 2     2 2014-07-08 00:59:53  321767     3.1.0 x86_64   mingw32      tseries 0.10-32      US
 3     3 2014-07-08 00:47:13  748063     3.1.0 x86_64 linux-gnu        party  1.0-15      US
 4     4 2014-07-08 00:48:05  606104     3.1.0 x86_64 linux-gnu        Hmisc  3.14-4      US
 5     6 2014-07-08 00:48:04   77681     3.1.0 x86_64 linux-gnu randomForest   4.6-7      US
 6     7 2014-07-08 00:48:35  393754     3.1.0 x86_64 linux-gnu         plyr   1.8.1      US
 7     8 2014-07-08 00:47:30   28216     3.0.2 x86_64 linux-gnu      whisker   0.3-2      US
 8    10 2014-07-08 00:15:35 2206029     3.0.2 x86_64 linux-gnu     hflights     0.1      US
 9    11 2014-07-08 00:15:25  526858     3.0.2 x86_64 linux-gnu         LPCM  0.44-8      US
10    12 2014-07-08 00:14:45 2351969    2.14.1 x86_64 linux-gnu      ggplot2   1.0.0      US
# ... with 95,273 more rows, and 1 more variables: ip_id <int>
 
 Now, use filter() to fetch all rows for which size is strictly greater than (>) 100500 (no
| quotes, since size is numeric) AND r_os equals "linux-gnu". Hint: You are passing three
| arguments to filter(): the name of the dataset, the first condition, and the second
| condition.
 
> filter(cran, size>100500, r_os == "linux-gnu")
# A tibble: 33,683 x 11
       X       date     time    size r_version r_arch      r_os  package version country
   <int>      <chr>    <chr>   <int>     <chr>  <chr>     <chr>    <chr>   <chr>   <chr>
 1     3 2014-07-08 00:47:13  748063     3.1.0 x86_64 linux-gnu    party  1.0-15      US
 2     4 2014-07-08 00:48:05  606104     3.1.0 x86_64 linux-gnu    Hmisc  3.14-4      US
 3     7 2014-07-08 00:48:35  393754     3.1.0 x86_64 linux-gnu     plyr   1.8.1      US
 4    10 2014-07-08 00:15:35 2206029     3.0.2 x86_64 linux-gnu hflights     0.1      US
 5    11 2014-07-08 00:15:25  526858     3.0.2 x86_64 linux-gnu     LPCM  0.44-8      US
 6    12 2014-07-08 00:14:45 2351969    2.14.1 x86_64 linux-gnu  ggplot2   1.0.0      US
 7    14 2014-07-08 00:15:35 3097729     3.0.2 x86_64 linux-gnu     Rcpp   0.9.7      VE
 8    15 2014-07-08 00:14:37  568036     3.1.0 x86_64 linux-gnu    rJava   0.9-6      US
 9    16 2014-07-08 00:15:50 1600441     3.1.0 x86_64 linux-gnu  RSQLite  0.11.4      US
10    18 2014-07-08 00:26:59  186685     3.1.0 x86_64 linux-gnu    ipred   0.9-3      DE
# ... with 33,673 more rows, and 1 more variables: ip_id <int>
…
| Sometimes we want to order the rows of a dataset according to the values of a particular
| variable. This is the job of arrange().
 
| To see how arrange() works, let's first take a subset of cran. select() all columns from
| size through ip_id and store the result in cran2.
 
> cran2<-select(cran, size:ip_id)
 
| Now, to order the ROWS of cran2 so that ip_id is in ascending order (from small to large),
| type arrange(cran2, ip_id). You may want to make your console wide enough so that you can
| see ip_id, which is the last column.
 
> arrange(cran2, ip_id)
# A tibble: 225,468 x 8
     size r_version r_arch         r_os     package version country ip_id
    <int>     <chr>  <chr>        <chr>       <chr>   <chr>   <chr> <int>
 1  80589     3.1.0 x86_64      mingw32   htmltools   0.2.4      US     1
 2 180562     3.0.2 x86_64      mingw32        yaml  2.1.13      US     1
 3 190120     3.1.0   i386      mingw32       babel   0.2-6      US     1
 4 321767     3.1.0 x86_64      mingw32     tseries 0.10-32      US     2
 5  52281     3.0.3 x86_64 darwin10.8.0    quadprog   1.5-5      US     2
 6 876702     3.1.0 x86_64    linux-gnu         zoo  1.7-11      US     2
 7 321764     3.0.2 x86_64    linux-gnu     tseries 0.10-32      US     2
 8 876702     3.1.0 x86_64    linux-gnu         zoo  1.7-11      US     2
 9 321768     3.1.0 x86_64      mingw32     tseries 0.10-32      US     2
10 784093     3.1.0 x86_64    linux-gnu strucchange   1.5-0      US     2
# ... with 225,458 more rows
…
